%YAML 1.1
%TAG !u! tag:unity3d.com,2011:
--- !u!114 &11400000
MonoBehaviour:
  m_ObjectHideFlags: 0
  m_PrefabParentObject: {fileID: 0}
  m_PrefabInternal: {fileID: 0}
  m_GameObject: {fileID: 0}
  m_Enabled: 1
  m_EditorHideFlags: 0
  m_Script: {fileID: 11500000, guid: a43f56c3906163949893b79155f6830c, type: 3}
  m_Name: Ice
  m_EditorClassIdentifier: 
  mpCost: 5
  pattern:
    buttonStates: 01010100
  element: 2
  basePower: 6
  randomPower: 5
  projectilePrefab: {fileID: 4000012849544818, guid: 497e280003e18b24d88b062a3f474d8f,
    type: 2}
  skillSoundEffect: 4
