%YAML 1.1
%TAG !u! tag:unity3d.com,2011:
--- !u!114 &11400000
MonoBehaviour:
  m_ObjectHideFlags: 0
  m_PrefabParentObject: {fileID: 0}
  m_PrefabInternal: {fileID: 0}
  m_GameObject: {fileID: 0}
  m_Enabled: 1
  m_EditorHideFlags: 0
  m_Script: {fileID: 11500000, guid: 8583c3603255e4748a6e7430fd414f16, type: 3}
  m_Name: PreBossLevel
  m_EditorClassIdentifier: 
  width: 40
  height: 40
  seed: -1
  tileset:
  - {fileID: 21300000, guid: 1fd1424fb262ec94896a3050070770ed, type: 3}
  - {fileID: 21300002, guid: 1fd1424fb262ec94896a3050070770ed, type: 3}
  - {fileID: 21300004, guid: 1fd1424fb262ec94896a3050070770ed, type: 3}
  - {fileID: 21300006, guid: 1fd1424fb262ec94896a3050070770ed, type: 3}
  - {fileID: 21300008, guid: 1fd1424fb262ec94896a3050070770ed, type: 3}
  - {fileID: 21300010, guid: 1fd1424fb262ec94896a3050070770ed, type: 3}
  - {fileID: 21300012, guid: 1fd1424fb262ec94896a3050070770ed, type: 3}
  - {fileID: 21300014, guid: 1fd1424fb262ec94896a3050070770ed, type: 3}
  - {fileID: 21300016, guid: 1fd1424fb262ec94896a3050070770ed, type: 3}
  - {fileID: 21300018, guid: 1fd1424fb262ec94896a3050070770ed, type: 3}
  - {fileID: 21300020, guid: 1fd1424fb262ec94896a3050070770ed, type: 3}
  - {fileID: 21300022, guid: 1fd1424fb262ec94896a3050070770ed, type: 3}
  - {fileID: 21300024, guid: 1fd1424fb262ec94896a3050070770ed, type: 3}
  - {fileID: 21300026, guid: 1fd1424fb262ec94896a3050070770ed, type: 3}
  - {fileID: 21300028, guid: 1fd1424fb262ec94896a3050070770ed, type: 3}
  - {fileID: 21300030, guid: 1fd1424fb262ec94896a3050070770ed, type: 3}
  - {fileID: 21300032, guid: 1fd1424fb262ec94896a3050070770ed, type: 3}
  - {fileID: 21300034, guid: 1fd1424fb262ec94896a3050070770ed, type: 3}
  - {fileID: 21300036, guid: 1fd1424fb262ec94896a3050070770ed, type: 3}
  - {fileID: 21300038, guid: 1fd1424fb262ec94896a3050070770ed, type: 3}
  - {fileID: 21300040, guid: 1fd1424fb262ec94896a3050070770ed, type: 3}
  - {fileID: 21300042, guid: 1fd1424fb262ec94896a3050070770ed, type: 3}
  - {fileID: 21300044, guid: 1fd1424fb262ec94896a3050070770ed, type: 3}
  - {fileID: 21300046, guid: 1fd1424fb262ec94896a3050070770ed, type: 3}
  - {fileID: 21300048, guid: 1fd1424fb262ec94896a3050070770ed, type: 3}
  - {fileID: 21300050, guid: 1fd1424fb262ec94896a3050070770ed, type: 3}
  - {fileID: 21300052, guid: 1fd1424fb262ec94896a3050070770ed, type: 3}
  - {fileID: 21300054, guid: 1fd1424fb262ec94896a3050070770ed, type: 3}
  - {fileID: 21300056, guid: 1fd1424fb262ec94896a3050070770ed, type: 3}
  - {fileID: 21300058, guid: 1fd1424fb262ec94896a3050070770ed, type: 3}
  - {fileID: 21300060, guid: 1fd1424fb262ec94896a3050070770ed, type: 3}
  - {fileID: 21300062, guid: 1fd1424fb262ec94896a3050070770ed, type: 3}
  - {fileID: 21300064, guid: 1fd1424fb262ec94896a3050070770ed, type: 3}
  - {fileID: 21300066, guid: 1fd1424fb262ec94896a3050070770ed, type: 3}
  - {fileID: 21300068, guid: 1fd1424fb262ec94896a3050070770ed, type: 3}
  - {fileID: 21300070, guid: 1fd1424fb262ec94896a3050070770ed, type: 3}
  customRooms:
  - {fileID: 11400000, guid: 6848992ee98f8234eb9ed5eb77b3801a, type: 2}
  - {fileID: 11400000, guid: 396bece5f80bb804aadf79409bb321a6, type: 2}
  enemies:
  - {fileID: 11400000, guid: 0f24319858fd7f44ea13bdef9146f303, type: 2}
  - {fileID: 11400000, guid: 8cabc00291f87a74996e4ae33f7dee18, type: 2}
  - {fileID: 11400000, guid: 1c33ec974e75aec45a188121527ad123, type: 2}
  - {fileID: 11400000, guid: d6c426cbb2f7a2f4e9f67409a5648a66, type: 2}
  doorData: {fileID: 11400000, guid: 6f43ee6cf6d3f7347b06378e1c79d418, type: 2}
  doorKeyData: {fileID: 11400000, guid: 47fca63818635ae42883fc6e042b8581, type: 2}
  cutoutDepthThreshold: 4
  splitProbability: 0.1
  customRoomProbability: 0.8
  randomRoomProbability: 0.7
  spawnProbability: 0.05
