%YAML 1.1
%TAG !u! tag:unity3d.com,2011:
--- !u!114 &11400000
MonoBehaviour:
  m_ObjectHideFlags: 0
  m_PrefabParentObject: {fileID: 0}
  m_PrefabInternal: {fileID: 0}
  m_GameObject: {fileID: 0}
  m_Enabled: 1
  m_EditorHideFlags: 0
  m_Script: {fileID: 11500000, guid: e11655592c4521541afd7211294b0e37, type: 3}
  m_Name: Gob
  m_EditorClassIdentifier: 
  maxHp: 25
  maxMp: 15
  attack: 11
  defense: 8
  magic: 5
  speed: 11
  sprite: {fileID: 21300000, guid: cdf000351546cb644a84f8bd00f5d7c4, type: 3}
  deathSound: 8
  skills:
  - {fileID: 11400000, guid: bdb7198755900524f92029e58e0b8247, type: 2}
  - {fileID: 11400000, guid: 21a1ea7e91671c24eb1d951e2b5f6928, type: 2}
  - {fileID: 11400000, guid: 650515fdd30f369488372ec6d1e67926, type: 2}
  - {fileID: 11400000, guid: c8ae19d516d94964186a1cc408ba3cc9, type: 2}
  entityClass: 6
  dialogs:
  - My head!
  - Spare me!
  - Help!
