%YAML 1.1
%TAG !u! tag:unity3d.com,2011:
--- !u!114 &11400000
MonoBehaviour:
  m_ObjectHideFlags: 0
  m_PrefabParentObject: {fileID: 0}
  m_PrefabInternal: {fileID: 0}
  m_GameObject: {fileID: 0}
  m_Enabled: 1
  m_EditorHideFlags: 0
  m_Script: {fileID: 11500000, guid: e11655592c4521541afd7211294b0e37, type: 3}
  m_Name: Knight
  m_EditorClassIdentifier: 
  maxHp: 30
  maxMp: 10
  attack: 11
  defense: 11
  magic: 7
  speed: 4
  sprite: {fileID: 21300000, guid: ae252ef104fe35f4394fe2eead012ca8, type: 3}
  deathSound: 9
  skills:
  - {fileID: 11400000, guid: bdb7198755900524f92029e58e0b8247, type: 2}
  - {fileID: 11400000, guid: 21a1ea7e91671c24eb1d951e2b5f6928, type: 2}
  - {fileID: 11400000, guid: 1f3633eccba77e44db049c1e3df645c0, type: 2}
  - {fileID: 11400000, guid: adba3bb6e7bd2ab41b3d6f8b1fc5d33d, type: 2}
  entityClass: 3
