%YAML 1.1
%TAG !u! tag:unity3d.com,2011:
--- !u!114 &11400000
MonoBehaviour:
  m_ObjectHideFlags: 0
  m_PrefabParentObject: {fileID: 0}
  m_PrefabInternal: {fileID: 0}
  m_GameObject: {fileID: 0}
  m_Enabled: 1
  m_EditorHideFlags: 0
  m_Script: {fileID: 11500000, guid: e11655592c4521541afd7211294b0e37, type: 3}
  m_Name: Ork
  m_EditorClassIdentifier: 
  maxHp: 20
  maxMp: 5
  attack: 9
  defense: 8
  magic: 2
  speed: 6
  sprite: {fileID: 21300000, guid: e7a0d8ca77f234141843b0d52968d63d, type: 3}
  deathSound: 8
  skills:
  - {fileID: 11400000, guid: bdb7198755900524f92029e58e0b8247, type: 2}
  - {fileID: 11400000, guid: 21a1ea7e91671c24eb1d951e2b5f6928, type: 2}
  entityClass: 4
  dialogs:
  - Grmphf!
  - Aargh!
  - '*dies quietly*'
