%YAML 1.1
%TAG !u! tag:unity3d.com,2011:
--- !u!114 &11400000
MonoBehaviour:
  m_ObjectHideFlags: 0
  m_PrefabParentObject: {fileID: 0}
  m_PrefabInternal: {fileID: 0}
  m_GameObject: {fileID: 0}
  m_Enabled: 1
  m_EditorHideFlags: 0
  m_Script: {fileID: 11500000, guid: 88019f39dc3699d4097a069bd67f9262, type: 3}
  m_Name: DoubleOrk
  m_EditorClassIdentifier: 
  overworldSprite: {fileID: 21300000, guid: e7a0d8ca77f234141843b0d52968d63d, type: 3}
  battleUnits:
  - {fileID: 11400000, guid: cf588aec97af89f4882d99903cdcb8b9, type: 2}
  - {fileID: 11400000, guid: cf588aec97af89f4882d99903cdcb8b9, type: 2}
  loot: []
