%YAML 1.1
%TAG !u! tag:unity3d.com,2011:
--- !u!114 &11400000
MonoBehaviour:
  m_ObjectHideFlags: 0
  m_PrefabParentObject: {fileID: 0}
  m_PrefabInternal: {fileID: 0}
  m_GameObject: {fileID: 0}
  m_Enabled: 1
  m_EditorHideFlags: 0
  m_Script: {fileID: 11500000, guid: d7a4703bb505b4d428f70b5222f863e9, type: 3}
  m_Name: BossBattle
  m_EditorClassIdentifier: 
  music: {fileID: 8300000, guid: 529d854423dcc964f84424a1bce2e961, type: 3}
  introLength: 6
  loopEnd: 0
