%YAML 1.1
%TAG !u! tag:unity3d.com,2011:
--- !u!114 &11400000
MonoBehaviour:
  m_ObjectHideFlags: 0
  m_PrefabParentObject: {fileID: 0}
  m_PrefabInternal: {fileID: 0}
  m_GameObject: {fileID: 0}
  m_Enabled: 1
  m_EditorHideFlags: 0
  m_Script: {fileID: 11500000, guid: 50909c774df802a41b5424984a796fc1, type: 3}
  m_Name: Book(Defense)
  m_EditorClassIdentifier: 
  counterAlwaysDisplayed: 0
  sprite: {fileID: 21300002, guid: ca83ac2f14974c3458d46926fc1bd280, type: 3}
  collectionSound: 17
  statToBoost: 1
  boostAmount: 2
  targetClass: 2
