%YAML 1.1
%TAG !u! tag:unity3d.com,2011:
--- !u!114 &11400000
MonoBehaviour:
  m_ObjectHideFlags: 0
  m_PrefabParentObject: {fileID: 0}
  m_PrefabInternal: {fileID: 0}
  m_GameObject: {fileID: 0}
  m_Enabled: 1
  m_EditorHideFlags: 0
  m_Script: {fileID: 11500000, guid: 0a6b1aa9127cced43a68ad2489a44a6f, type: 3}
  m_Name: DoubleStatBoost
  m_EditorClassIdentifier: 
  counterAlwaysDisplayed: 0
  sprite: {fileID: 21300000, guid: 148ec8087c0ab23469b0936b48261a65, type: 3}
  keyToUnlock: {fileID: 0}
  content:
  - {fileID: 11400000, guid: 84a94112ee678514895031a20822592a, type: 2}
  - {fileID: 11400000, guid: b9cae723b87d36c4280a47504a21c563, type: 2}
  - {fileID: 11400000, guid: 99926c335b141a64db7ea81de3838b91, type: 2}
  - {fileID: 11400000, guid: 0040ccc4910bb9e42921b6d054fc3618, type: 2}
  - {fileID: 11400000, guid: bd255545cdcd0ee40aa4a7a1ed9dcc18, type: 2}
  - {fileID: 11400000, guid: 12818ab5759f8ec47902333c51ad8097, type: 2}
  - {fileID: 11400000, guid: 0887c0669c54a9942a85ea97112520dd, type: 2}
  - {fileID: 11400000, guid: 1c33ec974e75aec45a188121527ad123, type: 2}
  - {fileID: 11400000, guid: e9e2ed58ecc6b0442a46d9108c81d630, type: 2}
  - {fileID: 11400000, guid: 5f6f7fb84dc32c647a1c688aac90f1f5, type: 2}
  - {fileID: 11400000, guid: 3a890f19343e1e94eab0f8f90564f933, type: 2}
  - {fileID: 11400000, guid: a9cb4abe8bda3144cb5a521894aaa43e, type: 2}
  randomChances: 2
