%YAML 1.1
%TAG !u! tag:unity3d.com,2011:
--- !u!114 &11400000
MonoBehaviour:
  m_ObjectHideFlags: 0
  m_PrefabParentObject: {fileID: 0}
  m_PrefabInternal: {fileID: 0}
  m_GameObject: {fileID: 0}
  m_Enabled: 1
  m_EditorHideFlags: 0
  m_Script: {fileID: 11500000, guid: 46a1f60c545cc894a8295537e9927571, type: 3}
  m_Name: Small passing room
  m_EditorClassIdentifier: 
  roomDesc: "h,h,.,h,h\r\nh,.,.,.,h\r\nh,.,.,.,h\r\nh,h,.,h,h"
  items: []
  limitPerLevel: 3
  allowSpawnAndExit: 1
  currentlyInLevel: 1
