%YAML 1.1
%TAG !u! tag:unity3d.com,2011:
--- !u!114 &11400000
MonoBehaviour:
  m_ObjectHideFlags: 0
  m_PrefabParentObject: {fileID: 0}
  m_PrefabInternal: {fileID: 0}
  m_GameObject: {fileID: 0}
  m_Enabled: 1
  m_EditorHideFlags: 0
  m_Script: {fileID: 11500000, guid: b52a9c953ee9f0a4bb71d5bdfdc2752b, type: 3}
  m_Name: DoubleOrk_Shaman
  m_EditorClassIdentifier: 
  counterAlwaysDisplayed: 0
  sprite: {fileID: 0}
  guard: {fileID: 11400000, guid: f08781118cc625042b2046e9ebf9b482, type: 2}
  loot:
  - {fileID: 11400000, guid: e5751165135dd704e95c08ce7b6e32a2, type: 2}
  - {fileID: 11400000, guid: 1d5f2add0b71b5c4d82adde03e774345, type: 2}
