%YAML 1.1
%TAG !u! tag:unity3d.com,2011:
--- !u!114 &11400000
MonoBehaviour:
  m_ObjectHideFlags: 0
  m_PrefabParentObject: {fileID: 0}
  m_PrefabInternal: {fileID: 0}
  m_GameObject: {fileID: 0}
  m_Enabled: 1
  m_EditorHideFlags: 0
  m_Script: {fileID: 11500000, guid: b52a9c953ee9f0a4bb71d5bdfdc2752b, type: 3}
  m_Name: MaHP_MiMP_Ork_Shaman
  m_EditorClassIdentifier: 
  counterAlwaysDisplayed: 0
  sprite: {fileID: 0}
  guard: {fileID: 11400000, guid: e5f4ed0aeeb807543a5f17c58f886c63, type: 2}
  loot:
  - {fileID: 11400000, guid: e30ec38ef728b4148888450347ab9c8d, type: 2}
  - {fileID: 11400000, guid: 47c744433c6ed9647829e51b0b0ae649, type: 2}
