%YAML 1.1
%TAG !u! tag:unity3d.com,2011:
--- !u!114 &11400000
MonoBehaviour:
  m_ObjectHideFlags: 0
  m_PrefabParentObject: {fileID: 0}
  m_PrefabInternal: {fileID: 0}
  m_GameObject: {fileID: 0}
  m_Enabled: 1
  m_EditorHideFlags: 0
  m_Script: {fileID: 11500000, guid: 0a6b1aa9127cced43a68ad2489a44a6f, type: 3}
  m_Name: Random_MaHPP_MaMP
  m_EditorClassIdentifier: 
  counterAlwaysDisplayed: 0
  sprite: {fileID: 21300000, guid: 148ec8087c0ab23469b0936b48261a65, type: 3}
  keyToUnlock: {fileID: 0}
  content:
  - {fileID: 11400000, guid: e30ec38ef728b4148888450347ab9c8d, type: 2}
  - {fileID: 11400000, guid: c9d2f3cddc22a0746a5bb83960a77062, type: 2}
  randomChances: 2
